Quadts test:  Quadlevel =    11
Digits1 =   500  Digits2 =  1000  Epsilon1 =  -500 Epsilon2 = -1000
initqts: Tanh-sinh quadrature initialization
           0       24576
        1024       24576
        2048       24576
        3072       24576
        4096       24576
        5120       24576
        6144       24576
        7168       24576
        8192       24576
        9216       24576
       10240       24576
       11264       24576
       12288       24576
       13312       24576
       14336       24576
initqts: Table spaced used =   14938
Quadrature initialization completed: cpu time =    1.111938

Continuous functions on finite itervals:

Problem 1: Int_0^1 t*log(1+t) dt = 1/4
quadts: Iteration  1 of 11; est error = 10^    0; approx value =
2.4996055656262656429379566503645027060409959384759122215496e-1                 
quadts: Iteration  2 of 11; est error = 10^    0; approx value =
2.4999999999628619317526003676928782334678886405662842306696e-1                 
quadts: Iteration  3 of 11; est error = 10^  -23; approx value =
2.4999999999999999999999940795411742893121357647002023916745e-1                 
quadts: Iteration  4 of 11; est error = 10^  -48; approx value =
2.4999999999999999999999999999999999999999999999999821716364e-1                 
quadts: Iteration  5 of 11; est error = 10^ -101; approx value =
2.5000000000000000000000000000000000000000000000000000000000e-1                 
quadts: Iteration  6 of 11; est error = 10^ -188; approx value =
2.5000000000000000000000000000000000000000000000000000000000e-1                 
quadts: Iteration  7 of 11; est error = 10^ -391; approx value =
2.5000000000000000000000000000000000000000000000000000000000e-1                 
quadts: Iteration  8 of 11; est error = 10^ -501; approx value =
2.5000000000000000000000000000000000000000000000000000000000e-1                 
Quadrature completed: CPU time =    0.149609
Result =
2.500000000000000000000000000000000000000000000000000000000000000000000000000000\
00000000000000000000000000000000000000000000000000000000000000000000000000000000\
00000000000000000000000000000000000000000000000000000000000000000000000000000000\
00000000000000000000000000000000000000000000000000000000000000000000000000000000\
00000000000000000000000000000000000000000000000000000000000000000000000000000000\
00000000000000000000000000000000000000000000000000000000000000000000000000000000\
00000000000000000000e-1                 
Actual error = -4.296164x10^  -520

Problem 2: Int_0^1 t^2*arctan(t) dt = (pi - 2 + 2*log(2))/12
quadts: Iteration  1 of 11; est error = 10^    0; approx value =
2.1047231245816686275584850222521521049853717692194154480286e-1                 
quadts: Iteration  2 of 11; est error = 10^    0; approx value =
2.1065725123782726843162819242030253082784853968816686163786e-1                 
quadts: Iteration  3 of 11; est error = 10^  -22; approx value =
2.1065725122580698782715176341961704656001932511977113740329e-1                 
quadts: Iteration  4 of 11; est error = 10^  -32; approx value =
2.1065725122580698810809230218298800170020449310180031641513e-1                 
quadts: Iteration  5 of 11; est error = 10^  -77; approx value =
2.1065725122580698810809230218298800169568080567463469410135e-1                 
quadts: Iteration  6 of 11; est error = 10^ -142; approx value =
2.1065725122580698810809230218298800169568080567463469410135e-1                 
quadts: Iteration  7 of 11; est error = 10^ -292; approx value =
2.1065725122580698810809230218298800169568080567463469410135e-1                 
quadts: Iteration  8 of 11; est error = 10^ -501; approx value =
2.1065725122580698810809230218298800169568080567463469410135e-1                 
Quadrature completed: CPU time =    0.259625
Result =
2.106572512258069881080923021829880016956808056746346941013587176078836375187998\
69153313456611246203588845920712868639842872073756755570278815891742616552753442\
64493702989011595718114348922769182271905538829499763136764058990175094863757612\
30267225156831178723191228782719323009963684893269075127690628821131673508503274\
54852046517532375765869607038190162094468511701902588602939290388307810934884416\
66286616272002561161657917492537299867809144190316120653270808935658116378942179\
91655411190071260634e-1                 
Actual error =  1.707212x10^  -520

Problem 3: Int_0^(pi/2) e^t*cos(t) dt = 1/2*(e^(pi/2) - 1)
quadts: Iteration  1 of 11; est error = 10^    0; approx value =
1.9053094886982578305279092388581301413514027217312127901297e0                  
quadts: Iteration  2 of 11; est error = 10^    0; approx value =
1.9052386879976614825811733002838583061243242713892437589225e0                  
quadts: Iteration  3 of 11; est error = 10^  -17; approx value =
1.9052386904826758277372115620877151969777462393143738780181e0                  
quadts: Iteration  4 of 11; est error = 10^  -42; approx value =
1.9052386904826758277365178333519165631950854373319753346343e0                  
quadts: Iteration  5 of 11; est error = 10^  -97; approx value =
1.9052386904826758277365178333519165631950854373322674700104e0                  
quadts: Iteration  6 of 11; est error = 10^ -212; approx value =
1.9052386904826758277365178333519165631950854373322674700104e0                  
quadts: Iteration  7 of 11; est error = 10^ -449; approx value =
1.9052386904826758277365178333519165631950854373322674700104e0                  
quadts: Iteration  8 of 11; est error = 10^ -501; approx value =
1.9052386904826758277365178333519165631950854373322674700104e0                  
Quadrature completed: CPU time =    0.196533
Result =
1.905238690482675827736517833351916563195085437332267470010407744621275952445791\
06837435238329194167732864111136784956463110167286032317199279277667595904469804\
85196040527787010036870516454041099334338500675891311536478648600647321738646130\
66840776692372852343695842613095336038432616941729086275792956664206353031364890\
08351710771589443964554673846706397865129826209106116060797421297345621394456639\
32853886913786390001148337350967162957032101980489156919946355336103910082031535\
65709751623335900933e0                  
Actual error = -2.917222x10^  -519

Problem 4: Int_0^1 arctan(sqrt(2+t^2))/((1+t^2)sqrt(2+t^2)) dt = 5*Pi^2/96
quadts: Iteration  1 of 11; est error = 10^    0; approx value =
5.1397487843142191233787336767333504266793881345872283695853e-1                 
quadts: Iteration  2 of 11; est error = 10^    0; approx value =
5.1404189362670924962704874731018457242391838561186016783228e-1                 
quadts: Iteration  3 of 11; est error = 10^  -17; approx value =
5.1404189589007076028810766873945583172020449748728384573068e-1                 
quadts: Iteration  4 of 11; est error = 10^  -36; approx value =
5.1404189589007076139762973957688287006746887898780610089696e-1                 
quadts: Iteration  5 of 11; est error = 10^  -71; approx value =
5.1404189589007076139762973957688287163092184412712451179236e-1                 
quadts: Iteration  6 of 11; est error = 10^ -146; approx value =
5.1404189589007076139762973957688287163092184412712451179236e-1                 
quadts: Iteration  7 of 11; est error = 10^ -288; approx value =
5.1404189589007076139762973957688287163092184412712451179236e-1                 
quadts: Iteration  8 of 11; est error = 10^ -501; approx value =
5.1404189589007076139762973957688287163092184412712451179236e-1                 
Quadrature completed: CPU time =    0.361650
Result =
5.140418958900707613976297395768828716309218441271245117923619466781273345010002\
73073009031443674595407501349675730372087383976464689064933729719670728395711509\
91665917742581409226593964754376712400361212340323775727430059995023639246155101\
11364717844052965319018537525161363996494808893888891200186953578908385586348196\
14337310299626975139756184639916903455944011821548414945746574367611979498188911\
22252556561229545152420587390652527794021909738584709161295682590249423394515112\
21619827736683571373e-1                 
Actual error = -2.126976x10^  -521

Continuous functions on finite itervals, but non-diff at an endpoint

Problem 5: Int_0^1 sqrt(t)*log(t) dt = -4/9
quadts: Iteration  1 of 11; est error = 10^    0; approx value =
-4.4443925765167077174881342336278028236711867087277531692107e-1                
quadts: Iteration  2 of 11; est error = 10^    0; approx value =
-4.4444444444411174763261625796348833749272788541518207035586e-1                
quadts: Iteration  3 of 11; est error = 10^  -25; approx value =
-4.4444444444444444444444444441205146274100876353232486928223e-1                
quadts: Iteration  4 of 11; est error = 10^  -57; approx value =
-4.4444444444444444444444444444444444444444444444444444444444e-1                
quadts: Iteration  5 of 11; est error = 10^ -123; approx value =
-4.4444444444444444444444444444444444444444444444444444444444e-1                
quadts: Iteration  6 of 11; est error = 10^ -259; approx value =
-4.4444444444444444444444444444444444444444444444444444444444e-1                
quadts: Iteration  7 of 11; est error = 10^ -501; approx value =
-4.4444444444444444444444444444444444444444444444444444444444e-1                
Quadrature completed: CPU time =    0.086968
Result =
-4.44444444444444444444444444444444444444444444444444444444444444444444444444444\
44444444444444444444444444444444444444444444444444444444444444444444444444444444\
44444444444444444444444444444444444444444444444444444444444444444444444444444444\
44444444444444444444444444444444444444444444444444444444444444444444444444444444\
44444444444444444444444444444444444444444444444444444444444444444444444444444444\
44444444444444444444444444444444444444444444444444444444444444444444444444444444\
444444444444444444444e-1                
Actual error =  2.643793x10^  -520

Problem 6: Int_0^1 sqrt(1-t^2) dt = pi/4
quadts: Iteration  1 of 11; est error = 10^    0; approx value =
7.8542738384415085579941868440919152543350756696087869878708e-1                 
quadts: Iteration  2 of 11; est error = 10^    0; approx value =
7.8539816339892810680793932178195796527751418989808815897237e-1                 
quadts: Iteration  3 of 11; est error = 10^  -24; approx value =
7.8539816339744830961566089120693041279766968651452626083551e-1                 
quadts: Iteration  4 of 11; est error = 10^  -51; approx value =
7.8539816339744830961566084581987572104929234984377006978131e-1                 
quadts: Iteration  5 of 11; est error = 10^  -99; approx value =
7.8539816339744830961566084581987572104929234984377645524373e-1                 
quadts: Iteration  6 of 11; est error = 10^ -195; approx value =
7.8539816339744830961566084581987572104929234984377645524373e-1                 
quadts: Iteration  7 of 11; est error = 10^ -389; approx value =
7.8539816339744830961566084581987572104929234984377645524373e-1                 
quadts: Iteration  8 of 11; est error = 10^ -501; approx value =
7.8539816339744830961566084581987572104929234984377645524373e-1                 
Quadrature completed: CPU time =    0.011704
Result =
7.853981633974483096156608458198757210492923498437764552437361480769541015715522\
49657008706335529266995537021628320576661773461152387645557931339852032120279362\
57102567548463027638991115573723873259549110720274391648336153211891205844669579\
13178004772864121417308650871526135816620533484018150622853184311467516515788970\
43720380230240707313522928841091973147590002832632637205116630346036737985377902\
35826431759143989798827304652934548315294827627963701861559499068739183797143818\
12228069845457529872e-1                 
Actual error =  1.486699x10^  -521

Functions on finite intervals with integrable singularity at an endpoint.

Problem 7: Int_0^1 sqrt(t)/sqrt(1-t^2) dt = 2*sqrt(pi)*gamma(3/4)/gamma(1/4)
quadts: Iteration  1 of 11; est error = 10^    0; approx value =
1.1981388738927171596492218401463126985272569088474735376649e0                  
quadts: Iteration  2 of 11; est error = 10^    0; approx value =
1.1981402347347729557161185717273657693541021565714690610427e0                  
quadts: Iteration  3 of 11; est error = 10^  -24; approx value =
1.1981402347355922074399224889231403077101845048745397457260e0                  
quadts: Iteration  4 of 11; est error = 10^  -53; approx value =
1.1981402347355922074399224922803238782272126632159652603428e0                  
quadts: Iteration  5 of 11; est error = 10^  -89; approx value =
1.1981402347355922074399224922803238782272126632156515582636e0                  
quadts: Iteration  6 of 11; est error = 10^ -196; approx value =
1.1981402347355922074399224922803238782272126632156515582636e0                  
quadts: Iteration  7 of 11; est error = 10^ -385; approx value =
1.1981402347355922074399224922803238782272126632156515582636e0                  
quadts: Iteration  8 of 11; est error = 10^ -499; approx value =
1.1981402347355922074399224922803238782272126632156515582636e0                  
quadts: Estimated error = 10^ -499
Increase secondary prec (nwords2) for greater accuracy. Current value =  53
Quadrature completed: CPU time =    0.020453
Result =
1.198140234735592207439922492280323878227212663215651558263674952946405214143915\
67083588555648979338937590722509724376227592887753970352803076560216976496727838\
70543041718873877355629063532093911521660691088669156563562802268663215657539261\
15289358757933417059753395500334751887440930772365593291188495599799130262083298\
37870957806158713627972864444622541447101174961729953748130528205821615488731173\
61130207945929664026967095913790275367046701929387031925359700645509616280707582\
56553767377440787478e0                  
Actual error =  2.918415x10^  -503

Problem 8: Int_0^1 log(t)^2 dt = 2
quadts: Iteration  1 of 11; est error = 10^    0; approx value =
2.0000107831445243001798182842597823153971961795338085941293e0                  
quadts: Iteration  2 of 11; est error = 10^    0; approx value =
2.0000000000004070641541545480633074341341566685317194072632e0                  
quadts: Iteration  3 of 11; est error = 10^  -25; approx value =
2.0000000000000000000000000000242212807278817632168117696002e0                  
quadts: Iteration  4 of 11; est error = 10^  -57; approx value =
2.0000000000000000000000000000000000000000000000000000000000e0                  
quadts: Iteration  5 of 11; est error = 10^ -124; approx value =
2.0000000000000000000000000000000000000000000000000000000000e0                  
quadts: Iteration  6 of 11; est error = 10^ -260; approx value =
2.0000000000000000000000000000000000000000000000000000000000e0                  
quadts: Iteration  7 of 11; est error = 10^ -500; approx value =
2.0000000000000000000000000000000000000000000000000000000000e0                  
Quadrature completed: CPU time =    0.081813
Result =
2.000000000000000000000000000000000000000000000000000000000000000000000000000000\
00000000000000000000000000000000000000000000000000000000000000000000000000000000\
00000000000000000000000000000000000000000000000000000000000000000000000000000000\
00000000000000000000000000000000000000000000000000000000000000000000000000000000\
00000000000000000000000000000000000000000000000000000000000000000000000000000000\
00000000000000000000000000000000000000000000000000000000000000000000000000000000\
00000000000000000000e0                  
Actual error =  1.586276x10^  -519

Problem 9: Int_0^(pi/2) log(cos(t)) dt = -pi*log(2)/2
quadts: Iteration  1 of 11; est error = 10^    0; approx value =
-1.0887211552390419386006687176698230798209111751319668393709e0                 
quadts: Iteration  2 of 11; est error = 10^    0; approx value =
-1.0887930451463721838470351059914293355269280982108117710816e0                 
quadts: Iteration  3 of 11; est error = 10^  -23; approx value =
-1.0887930451518010652503435189689119540910523323434697656025e0                 
quadts: Iteration  4 of 11; est error = 10^  -48; approx value =
-1.0887930451518010652503444491188069736692918501846304932997e0                 
quadts: Iteration  5 of 11; est error = 10^ -100; approx value =
-1.0887930451518010652503444491188069736692918501846431471629e0                 
quadts: Iteration  6 of 11; est error = 10^ -190; approx value =
-1.0887930451518010652503444491188069736692918501846431471629e0                 
quadts: Iteration  7 of 11; est error = 10^ -390; approx value =
-1.0887930451518010652503444491188069736692918501846431471629e0                 
quadts: Iteration  8 of 11; est error = 10^ -501; approx value =
-1.0887930451518010652503444491188069736692918501846431471629e0                 
Quadrature completed: CPU time =    0.257380
Result =
-1.08879304515180106525034444911880697366929185018464314716289762659715427458837\
09932151644808053315125288070670466784663890382752183018855017480157396380332083\
54306398902900085594241828542310963591445370660726023127015955425916345915993755\
14471404728787235660813959863870243283917322582043549049800143118357720495768139\
37614300517748403040054689361489101255779158784515354862460462005166875618148048\
12741427347806442228493804186500811039648268762278370107101419646935945518379985\
780095190698478905330e0                 
Actual error =  8.702717x10^  -520

Problem 10: Int_0^(pi/2) sqrt(tan(t)) dt = pi*sqrt(2)/2
quadts: Iteration  1 of 11; est error = 10^    0; approx value =
2.2214419200261557866400112140841572981594994258103512321893e0                  
quadts: Iteration  2 of 11; est error = 10^    0; approx value =
2.2214414690779814033937678565841697512301697844374849058247e0                  
quadts: Iteration  3 of 11; est error = 10^  -22; approx value =
2.2214414690791831235079405542020634108934558367162668272156e0                  
quadts: Iteration  4 of 11; est error = 10^  -50; approx value =
2.2214414690791831235079404950303468493073108446884175917876e0                  
quadts: Iteration  5 of 11; est error = 10^  -92; approx value =
2.2214414690791831235079404950303468493073108446878451115427e0                  
quadts: Iteration  6 of 11; est error = 10^ -195; approx value =
2.2214414690791831235079404950303468493073108446878451115427e0                  
quadts: Iteration  7 of 11; est error = 10^ -385; approx value =
2.2214414690791831235079404950303468493073108446878451115427e0                  
quadts: Iteration  8 of 11; est error = 10^ -499; approx value =
2.2214414690791831235079404950303468493073108446878451115427e0                  
quadts: Estimated error = 10^ -499
Increase secondary prec (nwords2) for greater accuracy. Current value =  53
Quadrature completed: CPU time =    0.099644
Result =
2.221441469079183123507940495030346849307310844687845111542697803478217396549736\
95528766346738238261868170510634261439568217979925917281374618767317983720751163\
96394098779387665567268305506532610638265097387212743605377051585542263547408014\
24891965537222550934667468518845625118383143448263922953616914676851398417066713\
06950662859997565759604664852856403861602683258051513782130360980447633853765055\
39449061973026800300633304880541561966581083978558128697007116872919787468362624\
26601161988821054866e0                  
Actual error =  5.172756x10^  -503

Functions on an infinite interval

Problem 11: Int_0^inf 1/(1+t^2) dt = pi/2
quadts: Iteration  1 of 11; est error = 10^    0; approx value =
1.5795308408497874292110593270667315401244596993033745146461e0                  
quadts: Iteration  2 of 11; est error = 10^    0; approx value =
1.5708084354078866489986242011831254185128801614165095163665e0                  
quadts: Iteration  3 of 11; est error = 10^  -10; approx value =
1.5707963268182315896744874893568860018437724120268887374409e0                  
quadts: Iteration  4 of 11; est error = 10^  -21; approx value =
1.5707963267948966192314083548239419785443205667435582748156e0                  
quadts: Iteration  5 of 11; est error = 10^  -44; approx value =
1.5707963267948966192313216916397514420985847008828873032931e0                  
quadts: Iteration  6 of 11; est error = 10^  -90; approx value =
1.5707963267948966192313216916397514420985846996875529104874e0                  
quadts: Iteration  7 of 11; est error = 10^ -181; approx value =
1.5707963267948966192313216916397514420985846996875529104874e0                  
quadts: Iteration  8 of 11; est error = 10^ -364; approx value =
1.5707963267948966192313216916397514420985846996875529104874e0                  
quadts: Iteration  9 of 11; est error = 10^ -501; approx value =
1.5707963267948966192313216916397514420985846996875529104874e0                  
Quadrature completed: CPU time =    0.025631
Result =
1.570796326794896619231321691639751442098584699687552910487472296153908203143104\
49931401741267105853399107404325664115332354692230477529111586267970406424055872\
51420513509692605527798223114744774651909822144054878329667230642378241168933915\
82635600954572824283461730174305227163324106696803630124570636862293503303157794\
08744076046048141462704585768218394629518000566526527441023326069207347597075580\
47165286351828797959765460930586909663058965525592740372311899813747836759428763\
62445613969091505974e0                  
Actual error =  3.145377x10^  -515

Problem 12: Int_0^inf e^(-t)/sqrt(t) dt = sqrt(pi)
quadts: Iteration  1 of 11; est error = 10^    0; approx value =
1.7684848044339289556198900791707613598413238475478275915873e0                  
quadts: Iteration  2 of 11; est error = 10^    0; approx value =
1.7723726185901894752223360218012687318244631187654759438189e0                  
quadts: Iteration  3 of 11; est error = 10^   -7; approx value =
1.7724538525123060123532227345480910356609943201251614009893e0                  
quadts: Iteration  4 of 11; est error = 10^  -18; approx value =
1.7724538509055180097247621530218569704343354849043643090816e0                  
quadts: Iteration  5 of 11; est error = 10^  -25; approx value =
1.7724538509055160272981674832211151607156435589013888267323e0                  
quadts: Iteration  6 of 11; est error = 10^  -53; approx value =
1.7724538509055160272981674833411451827975494561223918257782e0                  
quadts: Iteration  7 of 11; est error = 10^  -91; approx value =
1.7724538509055160272981674833411451827975494561223871282138e0                  
quadts: Iteration  8 of 11; est error = 10^ -170; approx value =
1.7724538509055160272981674833411451827975494561223871282138e0                  
quadts: Iteration  9 of 11; est error = 10^ -313; approx value =
1.7724538509055160272981674833411451827975494561223871282138e0                  
quadts: Iteration 10 of 11; est error = 10^ -499; approx value =
1.7724538509055160272981674833411451827975494561223871282138e0                  
quadts: Estimated error = 10^ -499
Increase secondary prec (nwords2) for greater accuracy. Current value =  53
Quadrature completed: CPU time =    0.449349
Result =
1.772453850905516027298167483341145182797549456122387128213807789852911284591032\
18137495065673854466541622682362428257066623615286572442260252509370960278706846\
20376986531051228499251730289508262289320953792679628001746390153514797205167001\
90185234018585446974494912640313921775525906216405419332500906398407613733477475\
15343366798978936585183640879545116516173876005906739343179133280985484624818490\
20546548521956132515616474675150427387610561079961271072100603720444836723652966\
13708094323498831668e0                  
Actual error =  1.444396x10^  -502

Problem 13: Int_0^inf e^(-t^2/2) dt = sqrt(pi/2)
quadts: Iteration  1 of 11; est error = 10^    0; approx value =
1.3559450053292387605444231009999215819687206883394717183062e0                  
quadts: Iteration  2 of 11; est error = 10^    0; approx value =
1.2506499951004049438390318051191454232737763311507723741921e0                  
quadts: Iteration  3 of 11; est error = 10^   -5; approx value =
1.2533169509432027688239520002299339457790891403707651204721e0                  
quadts: Iteration  4 of 11; est error = 10^  -11; approx value =
1.2533141379824011626775255835695665326413138295272180528757e0                  
quadts: Iteration  5 of 11; est error = 10^  -15; approx value =
1.2533141373155002514747407781355522803251048097045174112276e0                  
quadts: Iteration  6 of 11; est error = 10^  -37; approx value =
1.2533141373155002512078826424055226262459858087440879187641e0                  
quadts: Iteration  7 of 11; est error = 10^  -72; approx value =
1.2533141373155002512078826424055226265034933703049691583149e0                  
quadts: Iteration  8 of 11; est error = 10^ -120; approx value =
1.2533141373155002512078826424055226265034933703049691583149e0                  
quadts: Iteration  9 of 11; est error = 10^ -241; approx value =
1.2533141373155002512078826424055226265034933703049691583149e0                  
quadts: Iteration 10 of 11; est error = 10^ -457; approx value =
1.2533141373155002512078826424055226265034933703049691583149e0                  
quadts: Iteration 11 of 11; est error = 10^ -500; approx value =
1.2533141373155002512078826424055226265034933703049691583149e0                  
Quadrature completed: CPU time =    0.539483
Result =
1.253314137315500251207882642405522626503493370304969158314961788171146827303920\
98747329791918902863305800498633260193982243316180906336809047892782798307396595\
67177402290618655686639021565099694013235751172327524492129011647069313898343418\
06516837911922090578039245047800020687575137645825730612921930932460349530463332\
04559400786984862618885126937412392431674432129875329475654786938171362596344020\
10142859296248681540498922626927504998205096491293227940685848173374007644872616\
52367917373878099480e0                  
Actual error =  9.436331x10^  -507

Oscillatory functions on an infinite interval.

Problem 14: Int_0^inf e^(-t)*cos(t) dt = 1/2
quadts: Iteration  1 of 11; est error = 10^    0; approx value =
6.7622490702899459712677618776754553437396923820067296112919e-1                 
quadts: Iteration  2 of 11; est error = 10^    0; approx value =
5.1145690482098061383611376633197082080706776541091525511164e-1                 
quadts: Iteration  3 of 11; est error = 10^   -4; approx value =
4.9997837151602993175970352013888183312391771670428045611007e-1                 
quadts: Iteration  4 of 11; est error = 10^   -9; approx value =
4.9999998497619153445108670627632962242579385993900762500633e-1                 
quadts: Iteration  5 of 11; est error = 10^  -13; approx value =
4.9999999999998172302005397210416986556358149644192944639316e-1                 
quadts: Iteration  6 of 11; est error = 10^  -24; approx value =
5.0000000000000000000000000782523424362588992899184997915974e-1                 
quadts: Iteration  7 of 11; est error = 10^  -50; approx value =
5.0000000000000000000000000000000000000000000000163235211566e-1                 
quadts: Iteration  8 of 11; est error = 10^  -87; approx value =
5.0000000000000000000000000000000000000000000000000000000000e-1                 
quadts: Iteration  9 of 11; est error = 10^ -163; approx value =
5.0000000000000000000000000000000000000000000000000000000000e-1                 
quadts: Iteration 10 of 11; est error = 10^ -305; approx value =
5.0000000000000000000000000000000000000000000000000000000000e-1                 
quadts: Iteration 11 of 11; est error = 10^ -501; approx value =
5.0000000000000000000000000000000000000000000000000000000000e-1                 
Quadrature completed: CPU time =    1.154230
Result =
5.000000000000000000000000000000000000000000000000000000000000000000000000000000\
00000000000000000000000000000000000000000000000000000000000000000000000000000000\
00000000000000000000000000000000000000000000000000000000000000000000000000000000\
00000000000000000000000000000000000000000000000000000000000000000000000000000000\
00000000000000000000000000000000000000000000000000000000000000000000000000000000\
00000000000000000000000000000000000000000000000000000000000000000000000000000000\
00000000000000000000e-1                 
Actual error =  9.436331x10^  -507
Total CPU time =    4.806011
